         run       event       nTopo   nIdTracks  nTauTracks       nTaus      nMuons       nElec   nTrueElec   nFakeElec       nPhot   nTruePhot   nFakePhot
      284500    87473001         116         129          35           3           1           8           2           6           7           4           3
      284500    87473014          89          79          31           6           0          11           1          10           6           4           2
      284500    87473022          35          30          17           2           0           4           2           2           5           4           1
      284500    87473032          29          33          24           4           1          10           4           6           6           2           4
      284500    87473037          65          43          39           7           0          11           2           9           6           4           2
      284500    87473040         104          93          66           9           1          16           1          15          14           7           7
      284500    87473051         135         111          61          11           1          11           1          10          22          16           6
      284500    87473063          62          77          32           5           3           6           2           4           6           4           2
      284500    87473068          26          33           4           1           1           0           0           0           0           0           0
      284500    87473075          67          87          28           5           2           5           0           5           5           4           1
      284500    87473084          84          86          54           6           2          13           1          12          10           5           5
      284500    87473091          40          49          15           3           0           2           1           1           6           3           3
      284500    87473096          68          75          19           3           2           3           0           3           5           2           3
      284500    87473104          64          63          34           4           0           6           2           4           4           3           1
      284500    87473114          88          77          47           7           2          12           1          11           9           6           3
      284500    87473121          86         100          51           7           3          14           4          10           9           6           3
      284500    87473132          85          59          42           8           1          12           0          12           4           4           0
      284500    87473137          90          71          58           7           3          15           0          15           7           7           0
      284500    87473144          83          68          34           5           1           9           2           7           8           6           2
      284500    87473154          92          88          46           6           0          11           2           9           8           4           4
      284500    87473162          49          53          29           4           0           4           0           4           6           5           1
      284500    87473167          74          55          38           6           3          15           2          13          14           9           5
      284500    87473171          80          69          21           4           3           4           2           2           5           4           1
      284500    87473184          69          86          32           5           2           7           1           6           5           3           2
      284500    87473192          53          52          25           4           1           6           4           2           6           5           1
